<svg width="60" height="60" viewBox="0 0 60 60" fill="none" xmlns="http://www.w3.org/2000/svg">
<circle cx="29.975" cy="30.0265" r="25.9874" fill="url(#paint0_linear_1309_15)"/>
<path d="M12.142 46.7137H21.0701L31.615 34.9503L27.0221 29.959L12.142 46.7137Z" fill="#E9E9E9"/>
<path d="M38.903 16.7662H47.8545L36.1613 29.9591L31.6153 24.8741L38.903 16.7662Z" fill="white"/>
<path d="M21.0698 16.7192H12.0481L38.926 46.7372H47.9009L21.0698 16.7192Z" fill="white"/>
<path fill-rule="evenodd" clip-rule="evenodd" d="M15.4584 3.76621C29.9469 -4.26491 48.2027 0.969854 56.2338 15.4584C64.2649 29.9469 59.0301 48.2027 44.5416 56.2338C30.0531 64.2649 11.7973 59.0301 3.76621 44.5416C-4.26491 30.0531 0.96985 11.7973 15.4584 3.76621ZM57.5181 30.9715C56.9941 46.1821 44.2493 58.0883 29.0517 57.5648C13.8541 57.0413 1.95875 44.2863 2.48269 29.0758C3.00662 13.8653 15.7514 1.95906 30.9491 2.48255C46.1467 3.00604 58.042 15.761 57.5181 30.9715Z" fill="url(#paint1_linear_1309_15)"/>
<defs>
<linearGradient id="paint0_linear_1309_15" x1="3.98758" y1="30.0031" x2="55.9625" y2="30.0031" gradientUnits="userSpaceOnUse">
<stop stop-color="#8F8F8F"/>
<stop offset="1" stop-color="#DDDDDD"/>
</linearGradient>
<linearGradient id="paint1_linear_1309_15" x1="12.8348" y1="54.0414" x2="52.6903" y2="10.1328" gradientUnits="userSpaceOnUse">
<stop stop-color="#929292"/>
<stop offset="0.546875" stop-color="#C1C1C1"/>
<stop offset="1" stop-color="white"/>
</linearGradient>
</defs>
</svg>
