<svg width="51" height="52" viewBox="0 0 51 52" fill="none" xmlns="http://www.w3.org/2000/svg">
<path d="M47.1258 39.5109C47.0876 39.3005 46.9677 39.1136 46.7928 38.991C46.6151 38.8684 46.3958 38.8214 46.1834 38.8607L41.9662 39.6732V39.6736C41.7538 39.7129 41.5657 39.8355 41.4435 40.0139C41.3217 40.192 41.2759 40.4117 41.316 40.624C41.3557 40.8368 41.4778 41.0245 41.6563 41.1467C41.8347 41.2688 42.0544 41.3147 42.2668 41.2742L44.6556 40.8272C43.8258 41.9892 42.8812 43.0641 41.8363 44.0369C38.8793 46.8554 35.2325 48.845 31.2621 49.8055C27.2919 50.766 23.1386 50.6634 19.2207 49.5079C15.303 48.3528 11.7582 46.1852 8.94453 43.2244C8.62771 42.9091 8.11588 42.9091 7.7991 43.2244C7.64531 43.3767 7.55859 43.5844 7.55859 43.801C7.55859 44.018 7.64531 44.2254 7.7991 44.378C10.1363 46.7949 12.9371 48.7159 16.0336 50.0251C19.1305 51.3347 22.4593 52.0066 25.8213 52C32.1993 52.0155 38.3353 49.5607 42.9421 45.15C44.0351 44.1363 45.0256 43.0179 45.8998 41.8103L46.3061 43.9959C46.3808 44.3837 46.7239 44.6616 47.1185 44.6542H47.265C47.4774 44.6149 47.6654 44.4924 47.7872 44.3139C47.9094 44.1355 47.9553 43.9158 47.9148 43.7034L47.1023 39.5351L47.1258 39.5109Z" fill="white"/>
<path d="M32.9226 3.24658C31.5081 2.81606 30.0551 2.52507 28.5835 2.37746L29.6885 1.43472H29.6888C30.0319 1.14527 30.0758 0.632278 29.7863 0.288895C29.4969 -0.054132 28.9839 -0.0980687 28.6405 0.191384L26.0323 2.43409L25.9753 2.49114C25.8111 2.63028 25.7086 2.82915 25.6909 3.04345C25.6743 3.25928 25.7444 3.47281 25.8859 3.63661L28.1853 6.32608V6.32647C28.4771 6.66756 28.9901 6.70727 29.3312 6.41589C29.6723 6.12413 29.7123 5.61114 29.4206 5.27006L28.2586 3.96193C29.6816 4.09914 31.088 4.37124 32.4596 4.7744C37.2593 6.22007 41.4677 9.16973 44.4635 13.1885C47.4594 17.2072 49.0851 22.0824 49.1001 27.0956C49.1105 29.3438 48.7871 31.5808 48.1416 33.7341C48.0094 34.1627 48.2491 34.6175 48.6777 34.7501C48.7586 34.762 48.8407 34.762 48.9213 34.7501C49.2924 34.7659 49.6266 34.5284 49.7341 34.1731C50.4352 31.8683 50.7883 29.4721 50.7821 27.0632C50.7512 21.7036 48.9988 16.4949 45.7828 12.2068C42.5672 7.91905 38.0586 4.77788 32.9225 3.24666L32.9226 3.24658Z" fill="white"/>
<path d="M6.12417 34.1235C5.9226 34.0472 5.69905 34.0537 5.50249 34.142C5.30592 34.2306 5.15253 34.3933 5.07583 34.5949L4.45839 36.3501C3.92266 35.1056 3.49561 33.8167 3.18262 32.4986C2.74941 30.7191 2.53396 28.8938 2.54051 27.0626C2.52433 21.8271 4.28298 16.741 7.52973 12.6344C10.7761 8.52741 15.319 5.64218 20.4167 4.44969C20.8541 4.34639 21.1251 3.90778 21.0218 3.47033C20.9185 3.03288 20.4803 2.76193 20.0428 2.86522C14.5838 4.14445 9.72024 7.23738 6.24517 11.6385C2.77099 16.0393 0.891672 21.4883 0.914858 27.0958C0.909077 29.0552 1.1384 31.0085 1.59744 32.9137C1.95588 34.3668 2.43959 35.7858 3.0439 37.1552L1.1342 36.4807C0.928001 36.3921 0.694051 36.3925 0.48823 36.4819C0.28242 36.5717 0.12247 36.7428 0.0473051 36.9544C-0.0282367 37.1656 -0.0128205 37.3992 0.0900866 37.5988C0.192997 37.7985 0.373755 37.9469 0.589975 38.0085L4.26267 39.3167C4.34862 39.3479 4.4392 39.3645 4.53093 39.3652C4.65234 39.3675 4.7722 39.3394 4.88012 39.2843C5.07746 39.1926 5.22932 39.0257 5.30254 38.821V38.7316L6.56213 35.1646C6.71977 34.7564 6.5259 34.2962 6.12352 34.1243L6.12417 34.1235Z" fill="white"/>
<path d="M21.0023 15.1667C21.217 15.0199 21.4067 14.8387 21.5627 14.6306C21.8229 14.1592 21.2945 13.3387 20.8802 12.7698C20.4127 12.184 20.0901 11.4964 19.9378 10.7629L19.621 10.8685L19.3855 10.958C18.9142 11.153 18.4428 11.3642 17.9799 11.6001L17.8092 11.6895C17.3216 11.9496 16.8502 12.2175 16.3793 12.502C15.9079 12.7864 15.4774 13.1356 15.0465 13.469L14.8919 13.5989C14.4776 13.9319 14.0794 14.2814 13.7137 14.6472L13.5757 14.7852C13.1938 15.1671 12.828 15.5976 12.487 15.9715L12.4866 15.9711C11.9038 16.6879 11.3766 17.4488 10.9102 18.2462C11.2212 18.057 11.5661 17.9302 11.9261 17.8728H12.2838H12.2834C12.8438 17.894 13.3954 18.0208 13.9088 18.2462L14.4615 18.4575L16.5658 19.2699V19.2703C17.4712 19.7158 18.4745 19.9255 19.4827 19.8797C19.7987 19.8284 20.0866 19.6673 20.2951 19.4245C20.5063 19.1643 20.4982 19.0344 20.1976 18.417C19.887 17.9059 19.7609 17.3035 19.8403 16.7107C20.0149 16.0659 20.4308 15.5132 21.0023 15.1668L21.0023 15.1667Z" fill="white"/>
<path d="M28.0388 20.2045C27.8346 20.6686 27.6553 21.1434 27.5023 21.6267C27.2225 22.3671 27.3196 23.1969 27.7625 23.8528C28.5749 24.7628 30.3791 24.2267 31.1103 23.9504L31.5165 23.7958V23.7962C32.5012 23.3375 33.5616 23.062 34.6449 22.9833C35.1283 22.9787 35.6085 23.0674 36.0587 23.2435C37.2847 23.8158 38.2135 24.8776 38.6182 26.1688C38.824 26.7354 38.9974 27.3131 39.1381 27.8993C39.2761 28.4192 39.3983 28.8987 39.5686 29.37H39.569C40.097 30.7433 41.0185 31.9304 42.218 32.783C42.2666 32.6531 42.3236 32.5228 42.3641 32.3848C42.4046 32.2468 42.4292 32.1979 42.4535 32.1085C42.5996 31.6371 42.7218 31.1657 42.8274 30.6867V30.4836C42.9249 29.996 43.0062 29.5003 43.0629 29.0047V29.0043C43.0636 28.9908 43.0636 28.9774 43.0629 28.9639C43.1199 28.4682 43.1442 27.9645 43.1604 27.4689V27.1844C43.1604 26.7131 43.1604 26.2336 43.1118 25.7626V25.4377C43.0633 24.9663 43.0062 24.495 42.9249 24.024V24.0236C42.9288 23.9585 42.9288 23.8937 42.9249 23.8286C42.8436 23.39 42.738 22.951 42.6243 22.5205C42.6243 22.4149 42.5672 22.3093 42.5429 22.2036C42.4023 21.7377 42.2477 21.2829 42.0797 20.8385L41.9579 20.5379C41.7729 20.0669 41.564 19.6059 41.3323 19.1565C41.3058 19.0979 41.2757 19.0409 41.2429 18.9858C40.9909 18.5063 40.7149 18.0268 40.4305 17.5559C40.146 17.0845 39.7803 16.6864 39.4469 16.2474L39.3089 16.0766C39.0083 15.7027 38.6834 15.3536 38.3581 15.0121L38.0332 14.6791C37.7325 14.3866 37.4238 14.1021 37.107 13.8666C36.9524 13.7286 36.7902 13.6065 36.6275 13.4766C36.4649 13.3467 36.1723 13.127 35.9449 12.9647C35.7175 12.8021 35.4169 12.599 35.1325 12.4286C34.848 12.2579 34.7182 12.1765 34.5069 12.0548C34.2957 11.933 34.0599 11.7946 33.8325 11.6809C33.6051 11.5672 33.2069 11.3722 32.8897 11.2257L32.337 10.9902C31.9551 10.8357 31.5731 10.6977 31.1831 10.5678L30.7688 10.446C30.3787 10.3323 29.9563 10.2267 29.5987 10.1373L29.3713 10.0887C28.8999 9.99122 28.4286 9.91798 27.9495 9.86133H27.3887C27.1613 10.7875 26.9501 11.7302 26.7466 12.7215L26.747 12.7207C26.6634 13.0198 26.6468 13.3332 26.698 13.6392C26.8541 13.9078 27.0715 14.136 27.3321 14.3052C27.6026 14.5141 27.8531 14.748 28.0794 15.0043C28.8599 16.0646 29.0695 17.4405 28.6402 18.6851C28.471 19.2031 28.2702 19.7108 28.0389 20.2044L28.0388 20.2045Z" fill="white"/>
<path d="M25.7568 9.7469C24.3335 9.75731 22.9171 9.94269 21.5396 10.2996C21.5777 10.8723 21.8063 11.4157 22.1898 11.8435C22.6693 12.4937 23.8147 14.0211 23.0023 15.4514V15.451C22.7479 15.8557 22.4133 16.2041 22.0191 16.4747C21.7427 16.6859 21.491 16.889 21.4583 17.0517C21.4795 17.2941 21.5573 17.5281 21.6857 17.7343C21.9624 18.144 22.1015 18.6311 22.0826 19.1249C22.0634 19.6186 21.8876 20.0938 21.5801 20.4808C21.0983 21.0327 20.4304 21.3884 19.7031 21.4802C18.4182 21.5684 17.1319 21.3279 15.9653 20.7814L13.869 19.9689L13.3163 19.7577H13.3167C12.964 19.5801 12.5736 19.491 12.179 19.4976C11.7168 19.6506 11.3079 19.9323 11.0008 20.3101C10.6184 20.7263 10.1713 21.0774 9.67645 21.3503L9.46524 21.4397C8.56644 24.0825 8.31281 26.9018 8.72562 29.6627H9.31878C11.5534 29.5247 13.6902 28.1677 15.8597 25.5186C16.1816 25.0423 16.6579 24.6919 17.2087 24.5273C17.7221 24.4595 18.2432 24.5767 18.678 24.858C19.1131 25.1394 19.4334 25.5668 19.5814 26.0632C19.8581 26.7662 19.9333 27.5329 19.7984 28.2763C19.6635 29.0198 19.3239 29.7109 18.8175 30.2721C18.5342 30.5673 18.227 30.839 17.8994 31.0849C17.5414 31.327 17.228 31.6295 16.9733 31.9787C16.8499 32.2042 16.789 32.4586 16.796 32.7153C16.8033 32.9723 16.8784 33.2229 17.0137 33.441C17.5013 34.1641 18.6876 34.3348 19.8577 34.4485L20.6702 34.5298L21.816 34.6354C22.4743 34.6925 22.8805 34.6354 23.0267 34.4728C23.1727 34.3102 23.0267 33.9529 22.8397 33.6603V33.6607C22.6366 33.3828 22.4023 33.1292 22.141 32.9049C21.929 32.7307 21.7282 32.5434 21.5397 32.3441C20.8521 31.7124 20.5207 30.782 20.654 29.8578C21.0036 28.4603 22.6205 27.8994 23.9042 28.1758C24.5043 28.3284 25.0828 28.5547 25.6267 28.8503C25.9396 29.0168 26.2626 29.1636 26.5937 29.2889C27.5179 29.6373 28.5401 29.6231 29.4538 29.2484L29.6974 29.1509H29.6978C30.4193 28.7273 31.2977 28.6672 32.0705 28.9883C32.4898 29.2357 32.785 29.6489 32.8829 30.126C33.0248 30.7207 32.913 31.3478 32.5742 31.8565C32.0836 32.5214 31.3864 33.0043 30.5916 33.2298L30.3885 33.303L30.2097 33.3601C30.5839 33.3589 30.9504 33.468 31.2638 33.673C31.5772 33.8781 31.8238 34.1702 31.973 34.5136C32.1241 35.1176 31.9587 35.757 31.534 36.2122C31.2869 36.4519 31.0145 36.6647 30.7215 36.8458L30.5916 36.9271C30.1731 37.1834 29.8416 37.56 29.6408 38.0078C29.2022 39.0234 29.5514 39.4215 30.7296 40.3805C31.147 40.6977 31.5359 41.0511 31.8916 41.4365C32.2836 41.8859 32.5942 42.4001 32.8097 42.9562C33.6884 42.5727 34.536 42.1218 35.3449 41.6072C38.0718 39.8254 40.2405 37.3106 41.6014 34.3513C39.9854 33.2957 38.7428 31.7575 38.0506 29.9552C37.8656 29.4222 37.7083 28.8795 37.5796 28.3302C37.4447 27.8161 37.2848 27.3088 37.1002 26.8106C36.8431 25.958 36.2588 25.2422 35.4748 24.8198C34.4997 24.4379 33.281 24.9012 32.1108 25.3479L31.6965 25.5024C29.47 26.3149 27.6338 26.1526 26.5774 24.9744C25.7337 23.9118 25.5001 22.4885 25.9599 21.2119C26.1253 20.6581 26.3261 20.1154 26.5612 19.587C26.762 19.151 26.9358 18.7036 27.0811 18.2461C27.3717 17.5022 27.2935 16.6647 26.8699 15.9875C26.7065 15.8163 26.53 15.6591 26.3419 15.5161C25.8408 15.1712 25.4465 14.6925 25.2041 14.1348C25.0419 13.5497 25.0419 12.9319 25.2041 12.3472C25.3911 11.4207 25.5537 10.5596 25.7568 9.74683L25.7568 9.7469Z" fill="white"/>
<path d="M16.8834 29.7764C17.1389 29.5914 17.3782 29.3848 17.5983 29.1589C17.9028 28.8259 18.109 28.4147 18.1934 27.9715C18.2782 27.5282 18.2381 27.07 18.0778 26.6483C17.9398 26.2826 17.6796 26.0714 17.5821 26.0956C17.4846 26.1199 17.2734 26.3558 17.1516 26.5019C14.6572 29.5409 12.1381 31.093 9.43245 31.2715H9.05859C9.05859 31.3609 9.09906 31.4422 9.12373 31.5316L9.18077 31.759L9.27828 32.0758C9.39198 32.4335 9.51377 32.7989 9.64404 33.1484C9.64404 33.2217 9.69261 33.2945 9.72537 33.3677L9.82288 33.6198C9.96896 33.9609 10.1235 34.2943 10.2862 34.6354L10.5216 35.1149C10.7571 35.5535 11.0092 35.9925 11.2855 36.423L11.2848 36.4234C11.2963 36.4461 11.3102 36.4677 11.3252 36.4881L11.3738 36.5533C11.6502 36.9757 11.9427 37.3657 12.2433 37.7639C12.3813 37.9266 12.5116 38.0888 12.6495 38.2434C12.7875 38.3979 13.0558 38.7147 13.2751 38.9421L13.5187 39.2023L13.7788 39.4625C13.9739 39.6413 14.1608 39.8201 14.3639 39.9905C14.567 40.1612 14.8514 40.4129 15.1031 40.616L15.5583 40.949C15.8428 41.1602 16.1353 41.3714 16.4359 41.5665L16.9886 41.8995C17.1755 42.0132 17.3544 42.1269 17.5332 42.2244H17.6064C17.7525 42.3057 17.899 42.3624 18.045 42.4356C18.3376 42.5901 18.6382 42.7362 18.9388 42.8661C19.2395 42.996 19.4915 43.0854 19.7513 43.191C20.0115 43.2966 20.2146 43.3698 20.4582 43.4431C20.7017 43.5163 20.8806 43.573 21.1003 43.63C21.3196 43.687 21.6934 43.8007 21.9941 43.8655L22.571 43.9792C22.904 44.0443 23.2455 44.101 23.5866 44.1499L24.0823 44.207C24.4885 44.207 24.8947 44.2721 25.301 44.2883H25.6259L25.6263 44.2887C26.6939 44.2991 27.76 44.212 28.8118 44.0289L29.0881 43.9719C29.5105 43.8905 29.9333 43.793 30.3558 43.6793L30.762 43.5656L31.2496 43.403H31.2492C31.0985 43.0299 30.8873 42.6838 30.6237 42.3793C30.3254 42.0587 29.9989 41.765 29.6486 41.5017C28.6411 40.7787 27.1865 39.5923 28.1293 37.3739C28.4511 36.6177 28.9988 35.979 29.6976 35.5459L29.8356 35.4564C30.0109 35.3524 30.1771 35.2325 30.3312 35.0988L30.3798 35.0255H30.3802C30.1709 34.9693 29.9547 34.9419 29.7381 34.9446C29.1303 34.9435 28.5468 34.7045 28.1131 34.2782C27.8491 33.9857 27.7142 33.5987 27.7393 33.2056C27.757 32.9828 27.8657 32.777 28.0399 32.6367C28.593 32.2305 29.215 31.9276 29.876 31.7429L30.0467 31.6859V31.6863C30.4992 31.5653 30.9043 31.3105 31.2087 30.9548C31.2966 30.8145 31.3286 30.6464 31.2982 30.4834C31.2982 30.429 31.282 30.3967 31.2496 30.3859C31.0708 30.3046 30.6402 30.4834 30.2907 30.6295L30.0224 30.7351V30.7355C28.7513 31.2488 27.3341 31.2693 26.0491 30.7925C25.6621 30.6491 25.2848 30.4807 24.9194 30.2884C24.4962 30.0533 24.0461 29.8706 23.5789 29.7442C23.059 29.6386 22.3436 29.8174 22.2461 30.2074C22.2623 30.5963 22.4388 30.9609 22.7337 31.2149C22.8798 31.3695 23.0505 31.5156 23.2131 31.662V31.6616C23.5781 31.9595 23.9054 32.3006 24.1883 32.6776C24.5008 33.0719 24.6789 33.556 24.6966 34.0589C24.714 34.5619 24.5702 35.0576 24.2858 35.4726C23.5947 36.1286 22.6266 36.405 21.6938 36.2123L20.5156 36.1229L19.7031 36.0415C18.5492 35.9359 16.6155 35.749 15.6404 34.3106H15.64C15.3347 33.8354 15.1663 33.285 15.1532 32.7204C15.1405 32.1554 15.2835 31.598 15.5668 31.1093C15.9202 30.5883 16.3665 30.1365 16.8834 29.7765L16.8834 29.7764Z" fill="white"/>
</svg>
